{
  "artifactGenerations" : [ ],
  "artifactId" : "ossf-demo",
  "groupId" : "com.databricks.legend.lcr",
  "metamodelDependencies" : [ ],
  "projectDependencies" : [ ],
  "projectId" : "UAT-41434903",
  "projectStructureVersion" : {
    "extensionVersion" : 2,
    "version" : 12
  },
  "projectType" : null
}